Retail stats in Japan.
================
2019-09-15

## 概要

このデータは経済産業省による商業動態統計を参照しています。同統計は1980年1月から毎月公表されており、数値は10億円単位となっています。

    ## # A tsibble: 475 x 2 [1M]
    ##    yearmon 販売額
    ##      <mth>  <dbl>
    ##  1 1980  1   6396
    ##  2 1980  2   6518
    ##  3 1980  3   7574
    ##  4 1980  4   7557
    ##  5 1980  5   7240
    ##  6 1980  6   7126
    ##  7 1980  7   7512
    ##  8 1980  8   6852
    ##  9 1980  9   6897
    ## 10 1980 10   7270
    ## # … with 465 more rows
…
